…
``` r
all_parks <- get_NPS_parks(my_key)
all_des <- all_parks |>
  group_by(designation) |>
  filter(!designation == "") |>
  summarise(count = n()) |>
  arrange(desc(count))
all_des
```

    ## # A tibble: 46 × 2
    ##    designation              count
    ##    <chr>                    <int>
    ##  1 National Monument           80
    ##  2 National Historic Site      78
    ##  3 National Historical Park    63
    ##  4 National Park               51
    ##  5 National Historic Trail     18
    ##  6 National Memorial           17
    ##  7 National Recreation Area    16
    ##  8 National Battlefield        11
    ##  9 Park                        11
    ## 10 National Seashore           10
    ## # … with 36 more rows
…
## NPS Sites with Climbing and Swimming

Next, let’s use the `get_NPS_activities` function to pull data on all
parks with “Climbing” and/or “Swimming” recorded as possible activities.

``` r
climb_swim <- get_NPS_activities(my_key, c("Climbing", "Swimming"))
climb_swim
```

    ## # A tibble: 91 × 4
    ##    fullName                                   parkC…¹ states activ…²
    ##    <chr>                                      <chr>   <chr>  <chr>  
    ##  1 Acadia National Park                       acad    ME     Climbi…
    ##  2 Aniakchak National Monument & Preserve     ania    AK     Climbi…
    ##  3 Arches National Park                       arch    UT     Climbi…
    ##  4 Big South Fork National River & Recreatio… biso    KY,TN  Climbi…
    ##  5 Black Canyon Of The Gunnison National Park blca    CO     Climbi…
    ##  6 Canyonlands National Park                  cany    UT     Climbi…
    ##  7 Capitol Reef National Park                 care    UT     Climbi…
    ##  8 Catoctin Mountain Park                     cato    MD     Climbi…
    ##  9 Chickamauga & Chattanooga National Milita… chch    GA,TN  Climbi…
    ## 10 City Of Rocks National Reserve             ciro    ID     Climbi…
    ## # … with 81 more rows, and abbreviated variable names ¹​parkCode,
    ## #   ²​activity
…
